C:\Users\dlohani\workspace\BusinessHouse\src\main\java\com\game\businesshouse\objects\CellType.java
C:\Users\dlohani\workspace\BusinessHouse\src\main\java\com\game\businesshouse\objects\Player.java
C:\Users\dlohani\workspace\BusinessHouse\src\main\java\com\game\businesshouse\objects\Bank.java
C:\Users\dlohani\workspace\BusinessHouse\src\main\java\com\game\businesshouse\objects\Board.java
C:\Users\dlohani\workspace\BusinessHouse\src\main\java\com\game\businesshouse\utils\Logger.java
C:\Users\dlohani\workspace\BusinessHouse\src\main\java\com\game\businesshouse\objects\ContextService.java
C:\Users\dlohani\workspace\BusinessHouse\src\main\java\com\game\businesshouse\objects\BusinessBoard.java
C:\Users\dlohani\workspace\BusinessHouse\src\main\java\com\game\businesshouse\engine\Game.java
C:\Users\dlohani\workspace\BusinessHouse\src\main\java\com\game\businesshouse\objects\HotelType.java
C:\Users\dlohani\workspace\BusinessHouse\src\main\java\com\game\businesshouse\objects\JailCell.java
C:\Users\dlohani\workspace\BusinessHouse\src\main\java\com\game\businesshouse\objects\Asset.java
C:\Users\dlohani\workspace\BusinessHouse\src\main\java\com\game\businesshouse\objects\LotteryCell.java
C:\Users\dlohani\workspace\BusinessHouse\src\main\java\com\game\businesshouse\engine\Designer.java
C:\Users\dlohani\workspace\BusinessHouse\src\main\java\com\game\businesshouse\objects\Cell.java
C:\Users\dlohani\workspace\BusinessHouse\src\main\java\com\game\businesshouse\objects\Config.java
C:\Users\dlohani\workspace\BusinessHouse\src\main\java\com\game\businesshouse\service\DefaultContextService.java
C:\Users\dlohani\workspace\BusinessHouse\src\main\java\com\game\businesshouse\objects\GameContext.java
C:\Users\dlohani\workspace\BusinessHouse\src\main\java\com\game\businesshouse\objects\HotelCell.java
