com\game\businesshouse\objects\CellType.class
com\game\businesshouse\objects\GameContext.class
com\game\businesshouse\objects\GameContext$1.class
com\game\businesshouse\objects\Cell.class
com\game\businesshouse\engine\Game$Players.class
com\game\businesshouse\objects\Player.class
com\game\businesshouse\engine\Game$1.class
com\game\businesshouse\utils\Logger$1.class
com\game\businesshouse\service\DefaultContextService.class
com\game\businesshouse\objects\Board.class
com\game\businesshouse\objects\LotteryCell.class
com\game\businesshouse\objects\Player$1.class
com\game\businesshouse\objects\ContextService.class
com\game\businesshouse\objects\HotelCell.class
com\game\businesshouse\objects\Bank$1.class
com\game\businesshouse\utils\Logger.class
com\game\businesshouse\objects\BusinessBoard.class
com\game\businesshouse\objects\JailCell.class
com\game\businesshouse\objects\Asset.class
com\game\businesshouse\objects\Bank.class
com\game\businesshouse\engine\Designer$1.class
com\game\businesshouse\engine\Game$Result.class
com\game\businesshouse\engine\Designer.class
com\game\businesshouse\objects\Cell$1.class
com\game\businesshouse\engine\Game.class
com\game\businesshouse\objects\HotelType.class
com\game\businesshouse\objects\Config.class
